<svg width="63" height="63" viewBox="0 0 63 63" fill="none" xmlns="http://www.w3.org/2000/svg">
<g filter="url(#filter0_d)">
<rect x="12" y="11" width="39" height="39" rx="5" fill="url(#paint0_linear)"/>
</g>
<g clip-path="url(#clip0)">
<path d="M27.595 29.7627H26.726C26.6431 29.7627 26.576 29.6956 26.576 29.6127V28.6285C26.576 28.5456 26.6431 28.4785 26.726 28.4785H27.5779C27.9371 28.4785 28.243 28.7724 28.237 29.1315C28.2312 29.4805 27.9454 29.7627 27.595 29.7627ZM34.1296 34.5932C34.1872 34.7856 34.043 34.9792 33.8422 34.9792H25.1C23.9402 34.9792 23 34.039 23 32.8792V27.2463C23 26.0865 23.9402 25.1463 25.1 25.1463H37.2501C38.4099 25.1463 39.3501 26.0865 39.3501 27.2463V32.8792C39.3501 33.2222 39.2673 33.5463 39.1208 33.8326C39.0553 33.9607 38.9064 34.0225 38.7686 33.9813L35.0707 32.8743C34.386 32.6691 33.7451 33.309 33.9503 33.9946L34.1296 34.5932ZM28.5091 30.1652C28.4555 30.107 28.4555 30.0185 28.5091 29.9602C29.2476 29.1573 28.6561 27.8785 27.5715 27.8785H26.276C26.1103 27.8785 25.976 28.0128 25.976 28.1785C25.976 28.2686 25.976 32.0102 25.976 31.947C25.976 32.1126 26.1103 32.247 26.276 32.247H27.5715C28.6542 32.247 29.2492 30.9699 28.5091 30.1652ZM32.6056 28.1785C32.6056 28.0128 32.4712 27.8785 32.3056 27.8785C32.1399 27.8785 32.0056 28.0128 32.0056 28.1785V30.8164C32.0056 31.2744 31.6329 31.647 31.175 31.647C30.7171 31.647 30.3445 31.2744 30.3445 30.8164V28.1785C30.3445 28.0128 30.2102 27.8785 30.0445 27.8785C29.8788 27.8785 29.7445 28.0128 29.7445 28.1785V30.8164C29.7445 31.6052 30.3863 32.247 31.175 32.247C31.9638 32.247 32.6056 31.6052 32.6056 30.8164V28.1785ZM33.5557 28.3328L34.6221 30.1102C34.6526 30.1611 34.6435 30.0319 34.6435 31.9464C34.6435 32.1188 34.7888 32.2571 34.9635 32.2458C35.1229 32.2355 35.2435 32.096 35.2435 31.9362C35.2435 30.0367 35.2344 30.1611 35.2649 30.1102L36.3313 28.3329C36.4165 28.1908 36.3705 28.0065 36.2284 27.9213C36.0862 27.8359 35.9021 27.8821 35.8168 28.0242L35.0721 29.2653C35.0139 29.3624 34.8732 29.3624 34.8149 29.2653L34.0702 28.0242C33.985 27.8821 33.8008 27.8361 33.6586 27.9213C33.5165 28.0065 33.4705 28.1908 33.5557 28.3328ZM26.726 31.647H27.5779C27.9371 31.647 28.243 31.3531 28.237 30.9939C28.2311 30.6449 27.9454 30.3627 27.5949 30.3627H26.726C26.6431 30.3627 26.576 30.4299 26.576 30.5127V31.497C26.576 31.5798 26.6431 31.647 26.726 31.647ZM31.475 37.749V37.224C31.475 37.0583 31.3407 36.924 31.175 36.924C31.0094 36.924 30.875 37.0583 30.875 37.224V37.749C30.875 37.9146 31.0094 38.049 31.175 38.049C31.3407 38.049 31.475 37.9147 31.475 37.749ZM28.4062 37.1435L28.7775 36.7723C28.8946 36.6551 28.8946 36.4652 28.7775 36.3481C28.6603 36.2309 28.4704 36.2309 28.3532 36.3481L27.982 36.7193C27.7923 36.9089 27.9293 37.2314 28.1941 37.2314C28.2709 37.2314 28.3477 37.2021 28.4062 37.1435ZM31.475 22.9015V22.3765C31.475 22.2108 31.3407 22.0765 31.175 22.0765C31.0094 22.0765 30.875 22.2108 30.875 22.3765V22.9015C30.875 23.0672 31.0094 23.2015 31.175 23.2015C31.3407 23.2015 31.475 23.0672 31.475 22.9015ZM28.7775 23.3532L28.4062 22.982C28.2891 22.8648 28.0992 22.8648 27.982 22.982C27.8648 23.0991 27.8648 23.289 27.982 23.4062L28.3532 23.7774C28.4118 23.836 28.4885 23.8653 28.5653 23.8653C28.8302 23.8653 28.967 23.5427 28.7775 23.3532ZM33.9969 23.7774L34.3681 23.4062C34.4852 23.289 34.4852 23.0991 34.3681 22.982C34.2509 22.8648 34.061 22.8648 33.9438 22.982L33.5726 23.3532C33.383 23.5428 33.52 23.8653 33.7847 23.8653C33.8615 23.8653 33.9383 23.836 33.9969 23.7774ZM40.8932 37.8772L38.8817 36.1871L39.7161 35.3531C39.8759 35.1933 39.8082 34.9192 39.5901 34.8536L34.8984 33.4492C34.6705 33.3802 34.4563 33.5942 34.5253 33.8223L35.9297 38.514C35.9942 38.731 36.2688 38.8004 36.4292 38.64L37.2632 37.8056L38.9533 39.8171C39.0649 39.9496 39.2689 39.9624 39.3951 39.8362L40.9123 38.319C41.0359 38.1954 41.0282 37.9909 40.8932 37.8772Z" fill="#FAAF6A"/>
</g>
<defs>
<filter id="filter0_d" x="0" y="0" width="63" height="63" filterUnits="userSpaceOnUse" color-interpolation-filters="sRGB">
<feFlood flood-opacity="0" result="BackgroundImageFix"/>
<feColorMatrix in="SourceAlpha" type="matrix" values="0 0 0 0 0 0 0 0 0 0 0 0 0 0 0 0 0 0 127 0"/>
<feOffset dy="1"/>
<feGaussianBlur stdDeviation="6"/>
<feColorMatrix type="matrix" values="0 0 0 0 0.176471 0 0 0 0 0.188235 0 0 0 0 0.482353 0 0 0 0.35 0"/>
<feBlend mode="normal" in2="BackgroundImageFix" result="effect1_dropShadow"/>
<feBlend mode="normal" in="SourceGraphic" in2="effect1_dropShadow" result="shape"/>
</filter>
<linearGradient id="paint0_linear" x1="12" y1="11" x2="54.5455" y2="16.0537" gradientUnits="userSpaceOnUse">
<stop stop-color="#252868"/>
<stop offset="1" stop-color="#2F3280"/>
</linearGradient>
<clipPath id="clip0">
<rect width="18" height="18" fill="white" transform="translate(23 22)"/>
</clipPath>
</defs>
</svg>
