<svg width="70" height="70" viewBox="0 0 70 70" fill="none" xmlns="http://www.w3.org/2000/svg">
<rect x="5" width="65" height="65" rx="5" fill="#FA4B8C" fill-opacity="0.36"/>
<rect y="5" width="65" height="65" rx="5" fill="#FA4B8C"/>
<path d="M26.848 42.216C28.912 42.216 29.944 40.408 29.944 36.792C29.944 35.112 29.688 33.784 29.176 32.808C28.68 31.832 27.904 31.344 26.848 31.344C25.792 31.344 25.008 31.832 24.496 32.808C23.984 33.768 23.728 35.096 23.728 36.792C23.728 38.488 23.984 39.816 24.496 40.776C25.008 41.736 25.792 42.216 26.848 42.216ZM26.824 45.384C24.664 45.384 22.912 44.6 21.568 43.032C20.24 41.464 19.576 39.384 19.576 36.792C19.576 34.184 20.24 32.104 21.568 30.552C22.912 28.984 24.672 28.2 26.848 28.2C29.056 28.2 30.816 28.984 32.128 30.552C33.456 32.104 34.12 34.184 34.12 36.792C34.12 39.4 33.448 41.488 32.104 43.056C30.776 44.608 29.016 45.384 26.824 45.384ZM39.9145 45V34.488H36.3865V31.752C37.5385 31.72 38.5065 31.424 39.2905 30.864C40.0745 30.304 40.5625 29.488 40.7545 28.416H43.9705V45H39.9145Z" fill="white"/>
</svg>
