<svg width="63" height="63" viewBox="0 0 63 63" fill="none" xmlns="http://www.w3.org/2000/svg">
<g filter="url(#filter0_d)">
<rect x="12" y="11" width="39" height="39" rx="5" fill="url(#paint0_linear)"/>
</g>
<g clip-path="url(#clip0)">
<path d="M32 24.5928C31.6895 24.5928 31.4375 24.3407 31.4375 24.0303V22.5625C31.4375 22.252 31.6895 22 32 22C32.3105 22 32.5625 22.252 32.5625 22.5625V24.0303C32.5625 24.3407 32.3105 24.5928 32 24.5928Z" fill="#FAAF6A"/>
<path d="M36.9279 26.6343C36.7839 26.6343 36.6399 26.5795 36.5304 26.4693C36.3107 26.2495 36.3107 25.8933 36.5304 25.6735L37.5684 24.6355C37.7882 24.4158 38.1444 24.4158 38.3642 24.6355C38.5839 24.8553 38.5839 25.2115 38.3642 25.4313L37.3262 26.4693C37.2159 26.5788 37.0719 26.6343 36.9279 26.6343Z" fill="#FAAF6A"/>
<path d="M40.4381 31.5625H38.9704C38.6599 31.5625 38.4079 31.3105 38.4079 31C38.4079 30.6895 38.6599 30.4375 38.9704 30.4375H40.4381C40.7486 30.4375 41.0006 30.6895 41.0006 31C41.0006 31.3105 40.7486 31.5625 40.4381 31.5625Z" fill="#FAAF6A"/>
<path d="M37.9659 37.5288C37.8219 37.5288 37.6779 37.474 37.5684 37.3638L36.5304 36.3258C36.3107 36.106 36.3107 35.7498 36.5304 35.53C36.7502 35.3103 37.1064 35.3103 37.3262 35.53L38.3642 36.568C38.5839 36.7878 38.5839 37.144 38.3642 37.3638C38.2539 37.474 38.1099 37.5288 37.9659 37.5288Z" fill="#FAAF6A"/>
<path d="M26.0338 37.5288C25.8898 37.5288 25.7458 37.474 25.6363 37.3638C25.4166 37.144 25.4166 36.7878 25.6363 36.568L26.6743 35.53C26.8941 35.3103 27.2503 35.3103 27.4701 35.53C27.6898 35.7498 27.6898 36.106 27.4701 36.3258L26.4321 37.3638C26.3218 37.474 26.1778 37.5288 26.0338 37.5288Z" fill="#FAAF6A"/>
<path d="M25.0303 31.5625H23.5625C23.252 31.5625 23 31.3105 23 31C23 30.6895 23.252 30.4375 23.5625 30.4375H25.0303C25.3407 30.4375 25.5928 30.6895 25.5928 31C25.5928 31.3105 25.3407 31.5625 25.0303 31.5625Z" fill="#FAAF6A"/>
<path d="M27.0718 26.6343C26.9278 26.6343 26.7838 26.5795 26.6743 26.4693L25.6363 25.4313C25.4166 25.2115 25.4166 24.8553 25.6363 24.6355C25.8561 24.4158 26.2123 24.4158 26.4321 24.6355L27.4701 25.6735C27.6898 25.8933 27.6898 26.2495 27.4701 26.4693C27.3591 26.5788 27.2158 26.6343 27.0718 26.6343Z" fill="#FAAF6A"/>
<path d="M34.25 37.75V38.6875C34.25 39.4075 33.6575 40 32.9375 40H31.0625C30.4325 40 29.75 39.52 29.75 38.47V37.75H34.25Z" fill="#FAAF6A"/>
<path d="M35.3079 26.9198C34.0779 25.9223 32.4579 25.5323 30.8754 25.8698C28.8879 26.2823 27.2754 27.9023 26.8629 29.8898C26.4429 31.9298 27.2079 33.9548 28.8429 35.1923C29.2854 35.5223 29.5929 36.0323 29.6979 36.6248V36.6323C29.7129 36.6248 29.7354 36.6248 29.7504 36.6248H34.2504C34.2654 36.6248 34.2729 36.6248 34.2879 36.6323V36.6248C34.3929 36.0548 34.7304 35.5298 35.2479 35.1248C36.5154 34.1198 37.2504 32.6198 37.2504 30.9998C37.2504 29.4098 36.5454 27.9248 35.3079 26.9198ZM34.8129 31.3748C34.5054 31.3748 34.2504 31.1198 34.2504 30.8123C34.2504 29.6723 33.3279 28.7498 32.1879 28.7498C31.8804 28.7498 31.6254 28.4948 31.6254 28.1873C31.6254 27.8798 31.8804 27.6248 32.1879 27.6248C33.9429 27.6248 35.3754 29.0573 35.3754 30.8123C35.3754 31.1198 35.1204 31.3748 34.8129 31.3748Z" fill="#FAAF6A"/>
<path d="M29.6977 36.625H29.7502C29.7352 36.625 29.7127 36.625 29.6977 36.6322V36.625Z" fill="#FAAF6A"/>
<path d="M34.2875 36.625V36.6322C34.2725 36.625 34.265 36.625 34.25 36.625H34.2875Z" fill="#FAAF6A"/>
<circle cx="33.125" cy="29.875" r="2.625" fill="#FAAF6A"/>
</g>
<defs>
<filter id="filter0_d" x="0" y="0" width="63" height="63" filterUnits="userSpaceOnUse" color-interpolation-filters="sRGB">
<feFlood flood-opacity="0" result="BackgroundImageFix"/>
<feColorMatrix in="SourceAlpha" type="matrix" values="0 0 0 0 0 0 0 0 0 0 0 0 0 0 0 0 0 0 127 0"/>
<feOffset dy="1"/>
<feGaussianBlur stdDeviation="6"/>
<feColorMatrix type="matrix" values="0 0 0 0 0.176471 0 0 0 0 0.188235 0 0 0 0 0.482353 0 0 0 0.35 0"/>
<feBlend mode="normal" in2="BackgroundImageFix" result="effect1_dropShadow"/>
<feBlend mode="normal" in="SourceGraphic" in2="effect1_dropShadow" result="shape"/>
</filter>
<linearGradient id="paint0_linear" x1="12" y1="11" x2="54.5455" y2="16.0537" gradientUnits="userSpaceOnUse">
<stop stop-color="#252868"/>
<stop offset="1" stop-color="#2F3280"/>
</linearGradient>
<clipPath id="clip0">
<rect x="23" y="22" width="18" height="18" fill="white"/>
</clipPath>
</defs>
</svg>
