<svg width="20" height="20" viewBox="0 0 20 20" fill="none" xmlns="http://www.w3.org/2000/svg">
<path d="M17.9196 16.4929L17.0264 5.23836C16.9708 4.51328 16.3576 3.94527 15.6304 3.94527H13.8662V3.86598C13.8662 1.73426 12.132 0 10.0002 0C7.86851 0 6.13425 1.73426 6.13425 3.86598V3.94527H4.37011C3.64289 3.94527 3.02965 4.51324 2.97418 5.23684L2.08074 16.4944C2.0116 17.3958 2.32429 18.2932 2.93859 18.9564C3.55289 19.6196 4.42371 20 5.32773 20H14.6727C15.5767 20 16.4475 19.6196 17.0619 18.9564C17.6762 18.2931 17.9888 17.3958 17.9196 16.4929ZM7.30574 3.86598C7.30574 2.38023 8.51453 1.17148 10.0002 1.17148C11.4859 1.17148 12.6947 2.38027 12.6947 3.86598V3.94527H7.30574V3.86598ZM16.2024 18.1604C15.8032 18.5912 15.26 18.8285 14.6727 18.8285H5.32777C4.74043 18.8285 4.19722 18.5912 3.79808 18.1604C3.39898 17.7295 3.2039 17.1696 3.24875 16.5855L4.14211 5.32793C4.15117 5.20949 4.25133 5.11676 4.37011 5.11676H6.13425V6.55953C6.13425 6.88301 6.39652 7.14527 6.72 7.14527C7.04347 7.14527 7.30574 6.88301 7.30574 6.55953V5.11676H12.6947V6.55953C12.6947 6.88301 12.957 7.14527 13.2805 7.14527C13.6039 7.14527 13.8662 6.88301 13.8662 6.55953V5.11676H15.6304C15.7491 5.11676 15.8493 5.20953 15.8585 5.32949L16.7517 16.584C16.7966 17.1696 16.6015 17.7294 16.2024 18.1604Z" fill="#6078FF"/>
<path d="M12.6388 9.93304C12.4102 9.70429 12.0393 9.70429 11.8105 9.93304L9.19508 12.5485L8.18937 11.5428C7.96066 11.3141 7.58977 11.3141 7.36102 11.5428C7.13227 11.7716 7.13227 12.1424 7.36102 12.3712L8.7809 13.791C8.89527 13.9054 9.0452 13.9626 9.19504 13.9626C9.34488 13.9626 9.49484 13.9055 9.60918 13.791L12.6388 10.7614C12.8676 10.5326 12.8676 10.1618 12.6388 9.93304Z" fill="#6078FF"/>
</svg>
