<svg width="33" height="33" viewBox="0 0 33 33" fill="none" xmlns="http://www.w3.org/2000/svg">
<g clip-path="url(#clip0)">
<path d="M25.0741 5.98265C24.3477 5.29102 23.2943 5.06609 22.3487 5.4007C22.0813 5.49006 21.8865 5.72188 21.8447 6.00065L21.6347 7.44362C21.3163 9.62309 19.4514 11.2417 17.2488 11.2505H14.2489C13.9047 11.2506 13.6047 11.485 13.5214 11.8189L11.2715 20.8186C11.1712 21.2205 11.4158 21.6275 11.8177 21.7278C11.8769 21.7426 11.9378 21.7501 11.9989 21.7501H15.7488C16.093 21.75 16.3929 21.5156 16.4763 21.1816L17.8337 15.7503H20.7586C23.0039 15.7578 24.9626 14.2274 25.4984 12.047L26.0519 9.82854C26.4416 8.46396 26.0681 6.9954 25.0741 5.98265Z" fill="#03A9F4"/>
<path d="M0.749784 30.7496C0.335589 30.7495 -0.000140576 30.4137 4.41576e-08 29.9995C4.41576e-08 29.9384 0.0075232 29.8775 0.0222883 29.8182L0.772283 26.8333V26.8018L1.52228 23.8185C1.6056 23.4845 1.90554 23.2501 2.24977 23.25H4.1577C5.19323 23.2498 6.0328 24.089 6.03308 25.1245C6.03308 25.2779 6.0143 25.4307 5.97718 25.5794L5.78966 26.3294C5.58106 27.1644 4.83085 27.7501 3.97026 27.7499H2.08623L1.47876 30.1813C1.3953 30.5157 1.09451 30.7502 0.749784 30.7496ZM2.4612 26.2498H3.97012C4.14216 26.2493 4.29178 26.1318 4.33313 25.9648L4.52064 25.2148C4.57204 25.0151 4.45167 24.8114 4.25192 24.7601C4.22112 24.7522 4.18948 24.7482 4.15763 24.7484H2.83616L2.4612 26.2498Z" fill="#283593"/>
<path d="M8.7699 30.7494H7.70197C6.55381 30.7497 5.62284 29.8192 5.62256 28.671C5.62249 28.5009 5.64337 28.3315 5.68457 28.1665L5.78357 27.7675C6.00554 26.8721 6.81093 26.2445 7.73347 26.2481H8.8014C9.94956 26.25 10.8787 27.1824 10.8767 28.3306C10.8765 28.4998 10.8555 28.6683 10.8144 28.8324L10.7154 29.2314C10.4932 30.1247 9.69033 30.7511 8.7699 30.7494ZM7.14097 28.531C7.06391 28.8414 7.25304 29.1554 7.56339 29.2324C7.60874 29.2437 7.65521 29.2494 7.70197 29.2495H8.7699C9.00115 29.2501 9.20294 29.0929 9.25891 28.8685L9.3579 28.4695C9.43496 28.1592 9.24583 27.8451 8.93548 27.7681C8.89013 27.7568 8.84366 27.7511 8.7969 27.751H7.72897C7.49772 27.7504 7.29593 27.9076 7.23996 28.132L7.14097 28.531Z" fill="#283593"/>
<path d="M9.7493 30.7496C9.3351 30.7495 8.99944 30.4136 8.99951 29.9994C8.99951 29.9383 9.00703 29.8774 9.0218 29.8181L9.77179 26.8182C9.87206 26.416 10.2793 26.1712 10.6815 26.2715C11.0837 26.3717 11.3285 26.779 11.2283 27.1812L10.4783 30.1811C10.3948 30.5157 10.094 30.7502 9.7493 30.7496Z" fill="#283593"/>
<path d="M18.7493 30.7497C18.3351 30.7495 17.9994 30.4137 17.9995 29.9995C17.9995 29.9384 18.007 29.8775 18.0218 29.8182L18.7718 26.8333V26.8018L19.5218 23.8185C19.6051 23.4845 19.905 23.2501 20.2493 23.25H22.1572C23.1927 23.2498 24.0323 24.089 24.0326 25.1245C24.0326 25.2779 24.0138 25.4307 23.9767 25.5794L23.7892 26.3294C23.5806 27.1644 22.8304 27.7501 21.9698 27.7499H20.0858L19.4783 30.1813C19.3948 30.5158 19.094 30.7503 18.7493 30.7497ZM20.4607 26.2498H21.9712C22.1432 26.2494 22.2928 26.1319 22.3342 25.9649L22.5217 25.2149C22.573 25.0151 22.4527 24.8115 22.253 24.7602C22.2222 24.7522 22.1905 24.7483 22.1587 24.7484H20.8357L20.4607 26.2498Z" fill="#03A9F4"/>
<path d="M26.7694 30.7494H25.7015C24.5533 30.7497 23.6224 29.8192 23.6221 28.671C23.622 28.5009 23.6429 28.3315 23.6841 28.1665L23.7831 27.7675C24.005 26.8721 24.8104 26.2445 25.733 26.2481H26.8009C27.9491 26.2478 28.8801 27.1783 28.8803 28.3265C28.8804 28.4966 28.8595 28.666 28.8183 28.831L28.7193 29.23C28.4974 30.1254 27.692 30.753 26.7694 30.7494ZM25.1405 28.531C25.0634 28.8414 25.2526 29.1554 25.5629 29.2324C25.6083 29.2437 25.6547 29.2494 25.7015 29.2495H26.7694C27.0007 29.2502 27.2025 29.0929 27.2584 28.8685L27.3574 28.4695C27.4345 28.1592 27.2454 27.8452 26.935 27.7681C26.8897 27.7568 26.8432 27.7511 26.7964 27.751H25.7285C25.4972 27.7504 25.2954 27.9076 25.2395 28.132L25.1405 28.531Z" fill="#03A9F4"/>
<path d="M27.7488 30.7496C27.3346 30.7495 26.999 30.4136 26.999 29.9994C26.999 29.9383 27.0065 29.8774 27.0213 29.8181L27.7713 26.8182C27.8716 26.416 28.2788 26.1712 28.681 26.2715C29.0832 26.3717 29.328 26.779 29.2278 27.1812L28.4778 30.1811C28.3943 30.5157 28.0935 30.7502 27.7488 30.7496Z" fill="#03A9F4"/>
<path d="M14.2491 29.9998C13.9983 29.9997 13.7641 29.8742 13.6251 29.6654L12.1252 27.4154C11.8953 27.0709 11.9883 26.6051 12.333 26.3752C12.6776 26.1453 13.1433 26.2383 13.3732 26.583L14.8731 28.8329C15.1034 29.1772 15.011 29.6429 14.6668 29.8733C14.5432 29.9559 14.3978 29.9999 14.2491 29.9998Z" fill="#283593"/>
<path d="M12.7492 32.2494C12.335 32.2492 11.9994 31.9133 11.9995 31.4991C11.9996 31.3238 12.061 31.1541 12.1732 31.0194L15.9231 26.5195C16.1886 26.2014 16.6617 26.1588 16.9798 26.4243C17.2979 26.6897 17.3405 27.1629 17.075 27.4809L13.3252 31.9808C13.1825 32.1513 12.9715 32.2497 12.7492 32.2494Z" fill="#283593"/>
<path d="M30.7488 30.7494C30.3346 30.7493 29.999 30.4134 29.999 29.9992C29.999 29.9381 30.0065 29.8772 30.0213 29.818L31.5212 23.8182C31.6215 23.416 32.0287 23.1712 32.431 23.2715C32.8331 23.3717 33.078 23.779 32.9777 24.1812L31.4778 30.181C31.3944 30.5155 31.0936 30.7501 30.7488 30.7494Z" fill="#03A9F4"/>
<path d="M22.5981 2.04841C21.8775 1.22304 20.8349 0.749924 19.7392 0.750978H11.2495C10.8868 0.750978 10.5761 1.01056 10.5115 1.36746L7.51162 17.8668C7.43787 18.2744 7.70856 18.6645 8.11615 18.7383C8.16016 18.7462 8.20488 18.7502 8.2496 18.7502H12.7494C13.0937 18.7502 13.3936 18.5158 13.4769 18.1818L14.8359 12.7505H17.2493C20.1993 12.7389 22.6967 10.57 23.1215 7.6507L23.4965 5.08727C23.6511 3.99205 23.3234 2.88355 22.5981 2.04841Z" fill="#283593"/>
</g>
<defs>
<clipPath id="clip0">
<rect width="33" height="33" fill="white"/>
</clipPath>
</defs>
</svg>
