<svg width="19" height="15" viewBox="0 0 19 15" fill="none" xmlns="http://www.w3.org/2000/svg">
<path d="M18.7859 0.802163C18.5006 0.516792 18.0379 0.516792 17.7525 0.802163L5.90677 12.6479L1.24749 7.98859C0.962155 7.70318 0.499437 7.70318 0.214029 7.98859C-0.0713429 8.27396 -0.0713429 8.73664 0.214029 9.02205L5.39009 14.1981C5.67535 14.4834 6.13822 14.4835 6.42355 14.1981L18.7859 1.83562C19.0713 1.55022 19.0713 1.08754 18.7859 0.802163Z" fill="white"/>
</svg>
