<svg width="14" height="10" viewBox="0 0 14 10" fill="none" xmlns="http://www.w3.org/2000/svg">
<path d="M13.7116 1.9136C13.5502 1.36282 13.0773 0.928663 12.4777 0.780349C11.3821 0.505005 6.99986 0.505005 6.99986 0.505005C6.99986 0.505005 2.61773 0.505005 1.52216 0.769853C0.934063 0.91807 0.449675 1.36292 0.288283 1.9136C0 2.91963 0 5.00605 0 5.00605C0 5.00605 0 7.10295 0.288283 8.09849C0.449781 8.64918 0.922527 9.08343 1.52227 9.23174C2.62926 9.50709 6.99997 9.50709 6.99997 9.50709C6.99997 9.50709 11.3821 9.50709 12.4777 9.24224C13.0774 9.09402 13.5502 8.65977 13.7117 8.10908C13.9999 7.10295 13.9999 5.01664 13.9999 5.01664C13.9999 5.01664 14.0115 2.91963 13.7116 1.9136Z" fill="#6078FF"/>
<path d="M5.60461 6.93364L9.2487 5.00613L5.60461 3.07861V6.93364Z" fill="white"/>
</svg>
